CX2_HORIZONTAL_THRESHOLD,,,,,,,,,,,,,,,,,,,,,,,,,,,,,,,
// the most right column is not used,,,,,,,,,,,,,,,,,,,,,,,,,,,,,,,
, RX0, RX1, RX2, RX3, RX4, RX5, RX6, RX7, RX8, RX9, RX10, RX11, RX12, RX13, RX14, RX15, RX16, RX17, RX18, RX19, RX20, RX21, RX22, RX23, RX24, RX25, RX26, RX27, RX28, RX29,RX30
TX0,9,9,9,9,9,9,9,9,9,9,9,9,9,9,9,9,9,9,9,9,9,9,9,9,9,9,9,9,9,9,99,
TX1,9,9,9,9,9,9,9,9,9,9,9,9,9,9,9,9,9,9,9,9,9,9,9,9,9,9,9,9,9,9,99,
TX2,9,9,9,9,9,9,9,9,9,9,9,9,9,9,9,9,9,9,9,9,9,9,9,9,9,9,9,9,9,9,99,
TX3,9,9,9,9,9,9,9,9,9,9,9,9,9,9,9,9,9,9,9,9,9,9,9,9,9,9,9,9,9,9,99,
TX4,9,9,9,9,9,9,9,9,9,9,9,9,9,9,9,9,9,9,9,9,9,9,9,9,9,9,9,9,9,9,99,
TX5,9,9,9,9,9,9,9,9,9,9,9,9,9,9,9,9,9,9,9,9,9,9,9,9,9,9,9,9,9,9,99,
TX6,9,9,9,9,9,9,9,9,9,9,9,9,9,9,9,9,9,9,9,9,9,9,9,9,9,9,9,9,9,9,99,
TX7,9,9,9,9,9,9,9,9,9,9,9,9,9,9,9,9,9,9,9,9,9,9,9,9,9,9,9,9,9,9,99,
TX8,9,9,9,9,9,9,9,9,9,9,9,9,9,9,9,9,9,9,9,9,9,9,9,9,9,9,9,9,9,9,99,
TX9,9,9,9,9,9,9,9,9,9,9,9,9,9,9,9,9,9,9,9,9,9,9,9,9,9,9,9,9,9,9,99,
TX10,9,9,9,9,9,9,9,9,9,9,9,9,9,9,9,9,9,9,9,9,9,9,9,9,9,9,9,9,9,9,99,
TX11,9,9,9,9,9,9,9,9,9,9,9,9,9,9,9,9,9,9,9,9,9,9,9,9,9,9,9,9,9,9,99,
TX12,9,9,9,9,9,9,9,9,9,9,9,9,9,9,9,9,9,9,9,9,9,9,9,9,9,9,9,9,9,9,99,
TX13,9,9,9,9,9,9,9,9,9,9,9,9,9,9,9,9,9,9,9,9,9,9,9,9,9,9,9,9,9,9,99,
TX14,9,9,9,9,9,9,9,9,9,9,9,9,9,9,9,9,9,9,9,9,9,9,9,9,9,9,9,9,9,9,99,
TX15,9,9,9,9,9,9,9,9,9,9,9,9,9,9,9,9,9,9,9,9,9,9,9,9,9,9,9,9,9,9,99,
TX16,9,9,9,9,9,9,9,9,9,9,9,9,9,9,9,9,9,9,9,9,9,9,9,9,9,9,9,9,9,9,99,
,,,,,,,,,,,,,,,,,,,,,,,,,,,,,,,
CX2_VERTICAL_THRESHOLD,,,,,,,,,,,,,,,,,,,,,,,,,,,,,,,
// the most bottom row is not used,,,,,,,,,,,,,,,,,,,,,,,,,,,,,,,
, RX0, RX1, RX2, RX3, RX4, RX5, RX6, RX7, RX8, RX9, RX10, RX11, RX12, RX13, RX14, RX15, RX16, RX17, RX18, RX19, RX20, RX21, RX22, RX23, RX24, RX25, RX26, RX27, RX28, RX29,RX30
TX0,9,9,9,9,9,9,9,9,9,9,9,9,9,9,9,9,9,9,9,9,9,9,9,9,9,9,9,9,9,9,9,
TX1,9,9,9,9,9,9,9,9,9,9,9,9,9,9,9,9,9,9,9,9,9,9,9,9,9,9,9,9,9,9,9,
TX2,9,9,9,9,9,9,9,9,9,9,9,9,9,9,9,9,9,9,9,9,9,9,9,9,9,9,9,9,9,9,9,
TX3,9,9,9,9,9,9,9,9,9,9,9,9,9,9,9,9,9,9,9,9,9,9,9,9,9,9,9,9,9,9,9,
TX4,9,9,9,9,9,9,9,9,9,9,9,9,9,9,9,9,9,9,9,9,9,9,9,9,9,9,9,9,9,9,9,
TX5,9,9,9,9,9,9,9,9,9,9,9,9,9,9,9,9,9,9,9,9,9,9,9,9,9,9,9,9,9,9,9,
TX6,9,9,9,9,9,9,9,9,9,9,9,9,9,9,9,9,9,9,9,9,9,9,9,9,9,9,9,9,9,9,9,
TX7,9,9,9,9,9,9,9,9,9,9,9,9,9,9,9,9,9,9,9,9,9,9,9,9,9,9,9,9,9,9,9,
TX8,9,9,9,9,9,9,9,9,9,9,9,9,9,9,9,9,9,9,9,9,9,9,9,9,9,9,9,9,9,9,9,
TX9,9,9,9,9,9,9,9,9,9,9,9,9,9,9,9,9,9,9,9,9,9,9,9,9,9,9,9,9,9,9,9,
TX10,9,9,9,9,9,9,9,9,9,9,9,9,9,9,9,9,9,9,9,9,9,9,9,9,9,9,9,9,9,9,9,
TX11,9,9,9,9,9,9,9,9,9,9,9,9,9,9,9,9,9,9,9,9,9,9,9,9,9,9,9,9,9,9,9,
TX12,9,9,9,9,9,9,9,9,9,9,9,9,9,9,9,9,9,9,9,9,9,9,9,9,9,9,9,9,9,9,9,
TX13,9,9,9,9,9,9,9,9,9,9,9,9,9,9,9,9,9,9,9,9,9,9,9,9,9,9,9,9,9,9,9,
TX14,9,9,9,9,9,9,9,9,9,9,9,9,9,9,9,9,9,9,9,9,9,9,9,9,9,9,9,9,9,9,9,
TX15,9,9,9,9,9,9,9,9,9,9,9,9,9,9,9,9,9,9,9,9,9,9,9,9,9,9,9,9,9,9,9,
TX16,99,99,99,99,99,99,99,99,99,99,99,99,99,99,99,99,99,99,99,99,99,99,99,99,99,99,99,99,99,99,99,
,,,,,,,,,,,,,,,,,,,,,,,,,,,,,,,
CX2_MIN_THRESHOLD,,,,,,,,,,,,,,,,,,,,,,,,,,,,,,,
, RX0, RX1, RX2, RX3, RX4, RX5, RX6, RX7, RX8, RX9, RX10, RX11, RX12, RX13, RX14, RX15, RX16, RX17, RX18, RX19, RX20, RX21, RX22, RX23, RX24, RX25, RX26, RX27, RX28, RX29,RX30
TX0,23,23,23,23,23,23,23,23,23,23,23,23,23,23,23,23,23,23,23,23,23,23,23,23,23,23,23,23,23,23,23,
TX1,23,23,23,23,23,23,23,23,23,23,23,23,23,23,23,23,23,23,23,23,23,23,23,23,23,23,23,23,23,23,23,
TX2,23,23,23,23,23,23,23,23,23,23,23,23,23,23,23,23,23,23,23,23,23,23,23,23,23,23,23,23,23,23,23,
TX3,23,23,23,23,23,23,23,23,23,23,23,23,23,23,23,23,23,23,23,23,23,23,23,23,23,23,23,23,23,23,23,
TX4,23,23,23,23,23,23,23,23,23,23,23,23,23,23,23,23,23,23,23,23,23,23,23,23,23,23,23,23,23,23,23,
TX5,23,23,23,23,23,23,23,23,23,23,23,23,23,23,23,23,23,23,23,23,23,23,23,23,23,23,23,23,23,23,23,
TX6,23,23,23,23,23,23,23,23,23,23,23,23,23,23,23,23,23,23,23,23,23,23,23,23,23,23,23,23,23,23,23,
TX7,23,23,23,23,23,23,23,23,23,23,23,23,23,23,23,23,23,23,23,23,23,23,23,23,23,23,23,23,23,23,23,
TX8,23,23,23,23,23,23,23,23,23,23,23,23,23,23,23,23,23,23,23,23,23,23,23,23,23,23,23,23,23,23,23,
TX9,23,23,23,23,23,23,23,23,23,23,23,23,23,23,23,23,23,23,23,23,23,23,23,23,23,23,23,23,23,23,23,
TX10,23,23,23,23,23,23,23,23,23,23,23,23,23,23,23,23,23,23,23,23,23,23,23,23,23,23,23,23,23,23,23,
TX11,23,23,23,23,23,23,23,23,23,23,23,23,23,23,23,23,23,23,23,23,23,23,23,23,23,23,23,23,23,23,23,
TX12,23,23,23,23,23,23,23,23,23,23,23,23,23,23,23,23,23,23,23,23,23,23,23,23,23,23,23,23,23,23,23,
TX13,23,23,23,23,23,23,23,23,23,23,23,23,23,23,23,23,23,23,23,23,23,23,23,23,23,23,23,23,23,23,23,
TX14,23,23,23,23,23,23,23,23,23,23,23,23,23,23,23,23,23,23,23,23,23,23,23,23,23,23,23,23,23,23,23,
TX15,23,23,23,23,23,23,23,23,23,23,23,23,23,23,23,23,23,23,23,23,23,23,23,23,23,23,23,23,23,23,23,
TX16,23,23,23,23,23,23,23,23,23,23,23,23,23,23,23,23,23,23,23,23,23,23,23,23,23,23,23,23,23,23,23,
,,,,,,,,,,,,,,,,,,,,,,,,,,,,,,,
CX2_MAX_THRESHOLD,,,,,,,,,,,,,,,,,,,,,,,,,,,,,,,
, RX0, RX1, RX2, RX3, RX4, RX5, RX6, RX7, RX8, RX9, RX10, RX11, RX12, RX13, RX14, RX15, RX16, RX17, RX18, RX19, RX20, RX21, RX22, RX23, RX24, RX25, RX26, RX27, RX28, RX29,RX30
TX0,60,60,60,60,60,60,60,60,60,60,60,60,60,60,60,60,60,60,60,60,60,60,60,60,60,60,60,60,60,60,60,
TX1,60,60,60,60,60,60,60,60,60,60,60,60,60,60,60,60,60,60,60,60,60,60,60,60,60,60,60,60,60,60,60,
TX2,60,60,60,60,60,60,60,60,60,60,60,60,60,60,60,60,60,60,60,60,60,60,60,60,60,60,60,60,60,60,60,
TX3,60,60,60,60,60,60,60,60,60,60,60,60,60,60,60,60,60,60,60,60,60,60,60,60,60,60,60,60,60,60,60,
TX4,60,60,60,60,60,60,60,60,60,60,60,60,60,60,60,60,60,60,60,60,60,60,60,60,60,60,60,60,60,60,60,
TX5,60,60,60,60,60,60,60,60,60,60,60,60,60,60,60,60,60,60,60,60,60,60,60,60,60,60,60,60,60,60,60,
TX6,60,60,60,60,60,60,60,60,60,60,60,60,60,60,60,60,60,60,60,60,60,60,60,60,60,60,60,60,60,60,60,
TX7,60,60,60,60,60,60,60,60,60,60,60,60,60,60,60,60,60,60,60,60,60,60,60,60,60,60,60,60,60,60,60,
TX8,60,60,60,60,60,60,60,60,60,60,60,60,60,60,60,60,60,60,60,60,60,60,60,60,60,60,60,60,60,60,60,
TX9,60,60,60,60,60,60,60,60,60,60,60,60,60,60,60,60,60,60,60,60,60,60,60,60,60,60,60,60,60,60,60,
TX10,60,60,60,60,60,60,60,60,60,60,60,60,60,60,60,60,60,60,60,60,60,60,60,60,60,60,60,60,60,60,60,
TX11,60,60,60,60,60,60,60,60,60,60,60,60,60,60,60,60,60,60,60,60,60,60,60,60,60,60,60,60,60,60,60,
TX12,60,60,60,60,60,60,60,60,60,60,60,60,60,60,60,60,60,60,60,60,60,60,60,60,60,60,60,60,60,60,60,
TX13,60,60,60,60,60,60,60,60,60,60,60,60,60,60,60,60,60,60,60,60,60,60,60,60,60,60,60,60,60,60,60,
TX14,60,60,60,60,60,60,60,60,60,60,60,60,60,60,60,60,60,60,60,60,60,60,60,60,60,60,60,60,60,60,60,
TX15,60,60,60,60,60,60,60,60,60,60,60,60,60,60,60,60,60,60,60,60,60,60,60,60,60,60,60,60,60,60,60,
TX16,60,60,60,60,60,60,60,60,60,60,60,60,60,60,60,60,60,60,60,60,60,60,60,60,60,60,60,60,60,60,60,
TX17,60,60,60,60,60,60,60,60,60,60,60,60,60,60,60,60,60,60,60,60,60,60,60,60,60,60,60,60,60,60,60,
,,,,,,,,,,,,,,,,,,,,,,,,,,,,,,,
SELF_IX2_MIN,,,,,,,,,,,,,,,,,,,,,,,,,,,,,,,
, TX0, TX1, TX2, TX3, TX4, TX5, TX6, TX7, TX8, TX9, TX10, TX11, TX12, TX13, TX14, TX15, TX16, TX17,,,,,,,,,,,,,
,100,100,100,100,100,100,100,100,100,100,100,100,100,100,100,100,100,100,,,,,,,,,,,,,
, RX0, RX1, RX2, RX3, RX4, RX5, RX6, RX7, RX8, RX9, RX10, RX11, RX12, RX13, RX14, RX15, RX16, RX17, RX18, RX19, RX20, RX21, RX22, RX23, RX24, RX25, RX26, RX27, RX28, RX29, RX30
,40,40,40,40,40,40,40,40,40,40,40,40,40,40,40,40,40,40,40,40,40,40,40,40,40,40,40,40,40,40,40,
,,,,,,,,,,,,,,,,,,,,,,,,,,,,,,,
SELF_IX2_MAX,,,,,,,,,,,,,,,,,,,,,,,,,,,,,,,
, TX0, TX1, TX2, TX3, TX4, TX5, TX6, TX7, TX8, TX9, TX10, TX11, TX12, TX13, TX14, TX15, TX16, TX17,,,,,,,,,,,,,
,250,250,250,250,250,250,250,250,250,250,250,250,250,250,250,250,250,250,,,,,,,,,,,,,
, RX0, RX1, RX2, RX3, RX4, RX5, RX6, RX7, RX8, RX9, RX10, RX11, RX12, RX13, RX14, RX15, RX16, RX17, RX18, RX19, RX20, RX21, RX22, RX23, RX24, RX25, RX26, RX27, RX28, RX29, RX30
,120,120,120,120,120,120,120,120,120,120,120,120,120,120,120,120,120,120,120,120,120,120,120,120,120,120,120,120,120,120,120,
,,,,,,,,,,,,,,,,,,,,,,,,,,,,,,,
SELF_CX2_MIN,,,,,,,,,,,,,,,,,,,,,,,,,,,,,,,
, TX0, TX1, TX2, TX3, TX4, TX5, TX6, TX7, TX8, TX9, TX10, TX11, TX12, TX13, TX14, TX15, TX16, TX17,,,,,,,,,,,,,
,8,8,8,8,8,8,8,8,8,8,8,8,8,8,8,8,8,8,,,,,,,,,,,,,
, RX0, RX1, RX2, RX3, RX4, RX5, RX6, RX7, RX8, RX9, RX10, RX11, RX12, RX13, RX14, RX15, RX16, RX17, RX18, RX19, RX20, RX21, RX22, RX23, RX24, RX25, RX26, RX27, RX28, RX29, RX30
,8,8,8,8,8,8,8,8,8,8,8,8,8,8,8,8,8,8,8,8,8,8,8,8,8,8,8,8,8,8,8,
,,,,,,,,,,,,,,,,,,,,,,,,,,,,,,,
SELF_CX2_MAX,,,,,,,,,,,,,,,,,,,,,,,,,,,,,,,
, TX0, TX1, TX2, TX3, TX4, TX5, TX6, TX7, TX8, TX9, TX10, TX11, TX12, TX13, TX14, TX15, TX16, TX17,,,,,,,,,,,,,
,30,30,30,30,30,30,30,30,30,30,30,30,30,30,30,30,30,30,,,,,,,,,,,,,
, RX0, RX1, RX2, RX3, RX4, RX5, RX6, RX7, RX8, RX9, RX10, RX11, RX12, RX13, RX14, RX15, RX16, RX17, RX18, RX19, RX20, RX21, RX22, RX23, RX24, RX25, RX26, RX27, RX28, RX29, RX30
,30,30,30,30,30,30,30,30,30,30,30,30,30,30,30,30,30,30,30,30,30,30,30,30,30,30,30,30,30,30,30,
,,,,,,,,,,,,,,,,,,,,,,,,,,,,,,,
MUTUAL_RAW_MIN,,,,,,,,,,,,,,,,,,,,,,,,,,,,,,,
2400,,,,,,,,,,,,,,,,,,,,,,,,,,,,,,,
,,,,,,,,,,,,,,,,,,,,,,,,,,,,,,,
MUTUAL_RAW_MAX,,,,,,,,,,,,,,,,,,,,,,,,,,,,,,,
3600,,,,,,,,,,,,,,,,,,,,,,,,,,,,,,,
,,,,,,,,,,,,,,,,,,,,,,,,,,,,,,,
MUTUAL_RAW_GAP,,,,,,,,,,,,,,,,,,,,,,,,,,,,,,,
550,,,,,,,,,,,,,,,,,,,,,,,,,,,,,,,
,,,,,,,,,,,,,,,,,,,,,,,,,,,,,,,
SELF_RAW_FORCE_MIN,,,,,,,,,,,,,,,,,,,,,,,,,,,,,,,
2000,,,,,,,,,,,,,,,,,,,,,,,,,,,,,,,
,,,,,,,,,,,,,,,,,,,,,,,,,,,,,,,
SELF_RAW_FORCE_MAX,,,,,,,,,,,,,,,,,,,,,,,,,,,,,,,
3000,,,,,,,,,,,,,,,,,,,,,,,,,,,,,,,
,,,,,,,,,,,,,,,,,,,,,,,,,,,,,,,
SELF_RAW_SENSE_MIN,,,,,,,,,,,,,,,,,,,,,,,,,,,,,,,
2000,,,,,,,,,,,,,,,,,,,,,,,,,,,,,,,
,,,,,,,,,,,,,,,,,,,,,,,,,,,,,,,
SELF_RAW_SENSE_MAX,,,,,,,,,,,,,,,,,,,,,,,,,,,,,,,
3000,,,,,,,,,,,,,,,,,,,,,,,,,,,,,,,
